Using New Shapes in Venn Diagram • ggVennDiagram
…
  Changelog

      Using New Shapes in Venn Diagram

      Source: vignettes/using-new-shapes.Rmd
      using-new-shapes.Rmd

library(ggVennDiagram)

Internal Shapes

The ggVennDiagram package has a set of built-in shapes that are used to plot Venn diagram. These internal data are stored as sys data as a tibble. It can be viewed with ggVennDiagram:::shapes and plotted with the function plot_shapes().

ggVennDiagram:::shapes
#> # A tibble: 104 × 6
#>    nsets type    shape_id component id    xy             
#>    <dbl> <chr>   <chr>    <chr>     <chr> <list>         
#>  1     4 ellipse 401f     setEdge   1     <dbl [101 × 2]>
#>  2     4 ellipse 401f     setEdge   2     <dbl [101 × 2]>
#>  3     4 ellipse 401f     setEdge   3     <dbl [101 × 2]>
#>  4     4 ellipse 401f     setEdge   4     <dbl [101 × 2]>
#>  5     4 ellipse 401f     setLabel  1     <dbl [1 × 2]>  
#>  6     4 ellipse 401f     setLabel  2     <dbl [1 × 2]>  
#>  7     4 ellipse 401f     setLabel  3     <dbl [1 × 2]>  
#>  8     4 ellipse 401f     setLabel  4     <dbl [1 × 2]>  
#>  9     3 circle  301f     setEdge   1     <dbl [100 × 2]>
#> 10     3 circle  301f     setEdge   2     <dbl [100 × 2]>
#> # … with 94 more rows
…
