Venn Calculator • ggVennDiagram
…
Please note in order to keep the result concise, the containing items
are nested. You may use the following methods to further process it.

Method 1

venn_region(pd) |> tidyr::unnest(item)
#> # A tibble: 21 × 4
#>    id    name  item  count
#>    <chr> <chr> <chr> <int>
#>  1 1     A     p         3
#>  2 1     A     t         3
#>  3 1     A     v         3
#>  4 2     B     d         4
#>  5 2     B     f         4
#>  6 2     B     i         4
#>  7 2     B     z         4
#>  8 3     C     r         3
#>  9 3     C     u         3
#> 10 3     C     w         3
#> # ℹ 11 more rows
…
